<svg width="134" height="132" viewBox="0 0 134 132" fill="none" xmlns="http://www.w3.org/2000/svg">
<g id="Icons / Webcast">
<path id="Fill 1" fill-rule="evenodd" clip-rule="evenodd" d="M63.3337 50.6667L75.3337 42L63.3337 33.3333V50.6667ZM36.667 72H96.667V66.6667H36.667V72ZM67.3337 54.6667C59.867 54.6667 54.0003 48.8 54.0003 41.3333C54.0003 33.8667 59.867 28 67.3337 28C74.8003 28 80.667 33.8667 80.667 41.3333C80.667 48.8 74.8003 54.6667 67.3337 54.6667V54.6667ZM36.667 60H96.667V21.3333H36.667V60ZM52.667 10.6667H103.334V5.33333H52.667V10.6667ZM31.3337 77.3333H103.334V17.3333H31.3337V77.3333ZM31.3337 10.6667H36.667V5.33333H31.3337V10.6667ZM42.0003 10.6667H47.3337V5.33333H42.0003V10.6667ZM26.0003 82.6667H108.667V0H26.0003V82.6667ZM113.417 17.3333V88.8333H19.917V28.3333V17.3333H0.666992V105.333H132.667V17.3333H113.417ZM85.7579 110.667H47.5761L42.1215 126.667H36.667V132H96.667V126.667H91.2124L85.7579 110.667Z" fill="#026950"/>
</g>
</svg>
