<svg width="17" height="12" viewBox="0 0 17 12" fill="none" xmlns="http://www.w3.org/2000/svg">
<path fill-rule="evenodd" clip-rule="evenodd" d="M8.90323 10.7458L10.175 12L16.2581 6.00002L10.175 0L8.90323 1.25423L12.7348 5.03226H0V6.96774H12.7348L8.90323 10.7458Z" fill="#026950"/>
</svg>
