<svg width="31" height="25" viewBox="0 0 31 25" fill="none" xmlns="http://www.w3.org/2000/svg">
<path d="M27.8188 6.21833C27.8328 6.48393 27.8389 6.76515 27.8389 7.04638C27.8354 11.8571 25.9185 16.4655 22.5176 19.8397C19.1167 23.2138 14.5157 25.0719 9.74503 24.9979C6.29714 25.0011 2.9187 24.0207 0 22.17C0.494302 22.2169 1.00255 22.2481 1.51545 22.2481C4.37354 22.2526 7.15256 21.3021 9.41807 19.5452C6.71203 19.5074 4.32684 17.7452 3.47561 15.155C3.86881 15.2361 4.26897 15.278 4.6703 15.28C5.23613 15.2794 5.79956 15.2059 6.3469 15.0613C3.40197 14.487 1.26718 11.8986 1.24428 8.87434C1.24144 8.84838 1.24144 8.82218 1.24428 8.79622C2.13012 9.28015 3.11623 9.54772 4.12331 9.5774C2.36192 8.42155 1.29874 6.44685 1.29696 4.32788C1.29443 3.212 1.59103 2.11617 2.1554 1.15629C5.41376 5.10903 10.1682 7.50108 15.2598 7.74944C15.1555 7.27759 15.1035 6.7955 15.1049 6.31207C15.133 2.80125 17.9759 -0.0232444 21.458 0.000144212C23.2081 -0.00440628 24.8841 0.712401 26.0973 1.98434C27.5218 1.71283 28.8891 1.19482 30.1385 0.453228C29.6623 1.92327 28.6706 3.16764 27.3493 3.95291C28.6079 3.80003 29.8377 3.46319 31 2.953C30.1417 4.22443 29.0643 5.33037 27.8188 6.21833Z" fill="white"/>
</svg>
